Catalog Search • opendap.catalog
…
library(opendap.catalog)
library(terra)

As of 03/2022, there are 14,160 web resources documented in the catalog.

This offers too many resources to search through by hand unless you know exactly what you want which voids the possibility of serendipitous discovery. So, we have added a generally fuzzy search tool to help discover datasets.

Search

Say we want to find what snow water equivalent data (SWE) is available for a research problem. We can search the catalog on that key word:

(swe = search("swe"))
#> # A tibble: 188 × 16
#>    id       grid.id URL    tiled variable varname long_name units model ensemble
#>    <chr>    <chr>   <chr>  <chr> <chr>    <chr>   <chr>     <chr> <chr> <chr>   
#>  1 bcsd_vic 170     https… ""    swe      NA      NA        mm    acce… r1i1p1  
#>  2 bcsd_vic 170     https… ""    swe      NA      NA        mm    acce… r1i1p1  
#>  3 bcsd_vic 170     https… ""    swe      NA      NA        mm    bcc-… r1i1p1  
#>  4 bcsd_vic 170     https… ""    swe      NA      NA        mm    bcc-… r1i1p1  
#>  5 bcsd_vic 170     https… ""    swe      NA      NA        mm    bcc-… r1i1p1  
#>  6 bcsd_vic 170     https… ""    swe      NA      NA        mm    bcc-… r1i1p1  
#>  7 bcsd_vic 170     https… ""    swe      NA      NA        mm    bcc-… r1i1p1  
#>  8 bcsd_vic 170     https… ""    swe      NA      NA        mm    bcc-… r1i1p1  
#>  9 bcsd_vic 170     https… ""    swe      NA      NA        mm    cane… r1i1p1  
#> 10 bcsd_vic 170     https… ""    swe      NA      NA        mm    cane… r1i1p1  
#> # … with 178 more rows, and 6 more variables: scenario <chr>, T_name <chr>,
#> #   duration <chr>, interval <chr>, nT <int>, rank <dbl>
…
